-- Merging decision tree log ---
manifest
ADDED from /home/com82/TestingProjects/video/client/android/app/src/main/AndroidManifest.xml:1:1-34:12
	package
		ADDED from /home/com82/TestingProjects/video/client/android/app/src/main/AndroidManifest.xml:2:5-24
		INJECTED from /home/com82/TestingProjects/video/client/android/app/src/main/AndroidManifest.xml
		INJECTED from /home/com82/TestingProjects/video/client/android/app/src/main/AndroidManifest.xml
	android:versionName
		INJECTED from /home/com82/TestingProjects/video/client/android/app/src/main/AndroidManifest.xml
		INJECTED from /home/com82/TestingProjects/video/client/android/app/src/main/AndroidManifest.xml
	xmlns:android
		ADDED from /home/com82/TestingProjects/video/client/android/app/src/main/AndroidManifest.xml:1:11-69
	android:versionCode
		INJECTED from /home/com82/TestingProjects/video/client/android/app/src/main/AndroidManifest.xml
		INJECTED from /home/com82/TestingProjects/video/client/android/app/src/main/AndroidManifest.xml
uses-permission#android.permission.INTERNET
ADDED from /home/com82/TestingProjects/video/client/android/app/src/main/AndroidManifest.xml:4:5-67
	android:name
		ADDED from /home/com82/TestingProjects/video/client/android/app/src/main/AndroidManifest.xml:4:22-64
uses-permission#android.permission.SYSTEM_ALERT_WINDOW
ADDED from /home/com82/TestingProjects/video/client/android/app/src/main/AndroidManifest.xml:5:5-77
MERGED from [com.facebook.react:react-native:0.56.0] /home/com82/.android/build-cache/6f13d574276128c4ee0cd856e3c27779d65be702/output/AndroidManifest.xml:11:5-78
	android:name
		ADDED from /home/com82/TestingProjects/video/client/android/app/src/main/AndroidManifest.xml:5:22-75
uses-permission#android.permission.CAMERA
ADDED from /home/com82/TestingProjects/video/client/android/app/src/main/AndroidManifest.xml:6:5-65
	android:name
		ADDED from /home/com82/TestingProjects/video/client/android/app/src/main/AndroidManifest.xml:6:22-62
uses-permission#android.permission.MODIFY_AUDIO_SETTINGS
ADDED from /home/com82/TestingProjects/video/client/android/app/src/main/AndroidManifest.xml:7:5-80
	android:name
		ADDED from /home/com82/TestingProjects/video/client/android/app/src/main/AndroidManifest.xml:7:22-77
uses-permission#android.permission.RECORD_AUDIO
ADDED from /home/com82/TestingProjects/video/client/android/app/src/main/AndroidManifest.xml:8:5-71
	android:name
		ADDED from /home/com82/TestingProjects/video/client/android/app/src/main/AndroidManifest.xml:8:22-68
uses-feature#android.hardware.camera
ADDED from /home/com82/TestingProjects/video/client/android/app/src/main/AndroidManifest.xml:9:5-85
	android:required
		ADDED from /home/com82/TestingProjects/video/client/android/app/src/main/AndroidManifest.xml:9:58-82
	android:name
		ADDED from /home/com82/TestingProjects/video/client/android/app/src/main/AndroidManifest.xml:9:19-57
uses-feature#android.hardware.camera.autofocus
ADDED from /home/com82/TestingProjects/video/client/android/app/src/main/AndroidManifest.xml:10:5-95
	android:required
		ADDED from /home/com82/TestingProjects/video/client/android/app/src/main/AndroidManifest.xml:10:68-92
	android:name
		ADDED from /home/com82/TestingProjects/video/client/android/app/src/main/AndroidManifest.xml:10:19-67
uses-feature#android.hardware.microphone
ADDED from /home/com82/TestingProjects/video/client/android/app/src/main/AndroidManifest.xml:11:5-89
	android:required
		ADDED from /home/com82/TestingProjects/video/client/android/app/src/main/AndroidManifest.xml:11:62-86
	android:name
		ADDED from /home/com82/TestingProjects/video/client/android/app/src/main/AndroidManifest.xml:11:19-61
uses-permission#android.permission.ACCESS_NETWORK_STATE
ADDED from /home/com82/TestingProjects/video/client/android/app/src/main/AndroidManifest.xml:12:5-78
	android:name
		ADDED from /home/com82/TestingProjects/video/client/android/app/src/main/AndroidManifest.xml:12:22-76
uses-permission#android.permission.WAKE_LOCK
ADDED from /home/com82/TestingProjects/video/client/android/app/src/main/AndroidManifest.xml:13:5-68
	android:name
		ADDED from /home/com82/TestingProjects/video/client/android/app/src/main/AndroidManifest.xml:13:22-65
uses-permission#android.permission.WRITE_EXTERNAL_STORAGE
ADDED from /home/com82/TestingProjects/video/client/android/app/src/main/AndroidManifest.xml:14:5-80
	android:name
		ADDED from /home/com82/TestingProjects/video/client/android/app/src/main/AndroidManifest.xml:14:22-78
application
ADDED from /home/com82/TestingProjects/video/client/android/app/src/main/AndroidManifest.xml:15:5-32:19
MERGED from [com.facebook.react:react-native:0.56.0] /home/com82/.android/build-cache/6f13d574276128c4ee0cd856e3c27779d65be702/output/AndroidManifest.xml:13:5-20
MERGED from [com.android.support:appcompat-v7:26.1.0] /home/com82/.android/build-cache/ed0c17de2186433008bbb823edc83b2f991d56f0/output/AndroidManifest.xml:25:5-29:19
MERGED from [com.android.support:support-v4:26.1.0] /home/com82/.android/build-cache/feeedff675d6df38f777576ea4ec6086d736646b/output/AndroidManifest.xml:25:5-29:19
MERGED from [com.android.support:support-media-compat:26.1.0] /home/com82/.android/build-cache/cbdae43380cf55dd630cc60983beaceb115d74ee/output/AndroidManifest.xml:25:5-29:19
MERGED from [com.android.support:support-fragment:26.1.0] /home/com82/.android/build-cache/09da244e525af6c4723ef870b808391763702323/output/AndroidManifest.xml:25:5-29:19
MERGED from [com.android.support:support-core-utils:26.1.0] /home/com82/.android/build-cache/e22d074ab94b26be7eb2c813c62245a839ca8b0c/output/AndroidManifest.xml:25:5-29:19
MERGED from [com.android.support:animated-vector-drawable:26.1.0] /home/com82/.android/build-cache/5c97a7bafde8210db5154776996f567a6a64ec08/output/AndroidManifest.xml:22:5-26:19
MERGED from [com.android.support:support-vector-drawable:26.1.0] /home/com82/.android/build-cache/0de92b547b777221e29085d505b43b3d3a7071a8/output/AndroidManifest.xml:22:5-26:19
MERGED from [com.android.support:support-core-ui:26.1.0] /home/com82/.android/build-cache/5dc26041317fc80235223a702e9b4d242f1ca165/output/AndroidManifest.xml:25:5-29:19
MERGED from [com.android.support:support-compat:26.1.0] /home/com82/.android/build-cache/35ef9fcb4206e1b84555f4003afbf3d5add3d93f/output/AndroidManifest.xml:25:5-29:19
MERGED from [android.arch.lifecycle:runtime:1.0.0] /home/com82/.android/build-cache/70ce1ef5f45118481a294af74ee96721ec5a719e/output/AndroidManifest.xml:24:5-28:19
MERGED from [com.facebook.soloader:soloader:0.3.0] /home/com82/.android/build-cache/554f6eeabca8fd67c8357a496adb66641545690c/output/AndroidManifest.xml:11:5-20
MERGED from [org.webkit:android-jsc:r174650] /home/com82/.android/build-cache/039c604cfe7c48028edffeee1419a6f287df0614/output/AndroidManifest.xml:2:3-17
	android:label
		ADDED from /home/com82/TestingProjects/video/client/android/app/src/main/AndroidManifest.xml:17:7-39
	android:allowBackup
		ADDED from /home/com82/TestingProjects/video/client/android/app/src/main/AndroidManifest.xml:19:7-34
	android:icon
		ADDED from /home/com82/TestingProjects/video/client/android/app/src/main/AndroidManifest.xml:18:7-41
	android:theme
		ADDED from /home/com82/TestingProjects/video/client/android/app/src/main/AndroidManifest.xml:20:7-38
	android:name
		ADDED from /home/com82/TestingProjects/video/client/android/app/src/main/AndroidManifest.xml:16:7-38
activity#com.video.MainActivity
ADDED from /home/com82/TestingProjects/video/client/android/app/src/main/AndroidManifest.xml:21:7-30:18
	android:label
		ADDED from /home/com82/TestingProjects/video/client/android/app/src/main/AndroidManifest.xml:23:9-41
	android:windowSoftInputMode
		ADDED from /home/com82/TestingProjects/video/client/android/app/src/main/AndroidManifest.xml:25:9-51
	android:configChanges
		ADDED from /home/com82/TestingProjects/video/client/android/app/src/main/AndroidManifest.xml:24:9-79
	android:name
		ADDED from /home/com82/TestingProjects/video/client/android/app/src/main/AndroidManifest.xml:22:9-37
intent-filter#android.intent.action.MAIN+android.intent.category.LAUNCHER
ADDED from /home/com82/TestingProjects/video/client/android/app/src/main/AndroidManifest.xml:26:9-29:25
action#android.intent.action.MAIN
ADDED from /home/com82/TestingProjects/video/client/android/app/src/main/AndroidManifest.xml:27:13-65
	android:name
		ADDED from /home/com82/TestingProjects/video/client/android/app/src/main/AndroidManifest.xml:27:21-62
category#android.intent.category.LAUNCHER
ADDED from /home/com82/TestingProjects/video/client/android/app/src/main/AndroidManifest.xml:28:13-73
	android:name
		ADDED from /home/com82/TestingProjects/video/client/android/app/src/main/AndroidManifest.xml:28:23-70
activity#com.facebook.react.devsupport.DevSettingsActivity
ADDED from /home/com82/TestingProjects/video/client/android/app/src/main/AndroidManifest.xml:31:7-84
	android:name
		ADDED from /home/com82/TestingProjects/video/client/android/app/src/main/AndroidManifest.xml:31:17-81
uses-sdk
INJECTED from /home/com82/TestingProjects/video/client/android/app/src/main/AndroidManifest.xml reason: use-sdk injection requested
MERGED from [video:react-native-webrtc:unspecified] /home/com82/TestingProjects/video/client/node_modules/react-native-webrtc/android/build/intermediates/bundles/default/AndroidManifest.xml:7:5-9:41
MERGED from [video:WebRTCModule:unspecified] /home/com82/TestingProjects/video/client/node_modules/react-native-webrtc/android/build/intermediates/bundles/default/AndroidManifest.xml:7:5-9:41
MERGED from [com.facebook.react:react-native:0.56.0] /home/com82/.android/build-cache/6f13d574276128c4ee0cd856e3c27779d65be702/output/AndroidManifest.xml:7:5-9:41
MERGED from [com.android.support:appcompat-v7:26.1.0] /home/com82/.android/build-cache/ed0c17de2186433008bbb823edc83b2f991d56f0/output/AndroidManifest.xml:21:5-23:78
MERGED from [com.android.support:support-v4:26.1.0] /home/com82/.android/build-cache/feeedff675d6df38f777576ea4ec6086d736646b/output/AndroidManifest.xml:21:5-23:54
MERGED from [com.android.support:support-media-compat:26.1.0] /home/com82/.android/build-cache/cbdae43380cf55dd630cc60983beaceb115d74ee/output/AndroidManifest.xml:21:5-23:63
MERGED from [com.android.support:support-fragment:26.1.0] /home/com82/.android/build-cache/09da244e525af6c4723ef870b808391763702323/output/AndroidManifest.xml:21:5-23:60
MERGED from [com.android.support:support-core-utils:26.1.0] /home/com82/.android/build-cache/e22d074ab94b26be7eb2c813c62245a839ca8b0c/output/AndroidManifest.xml:21:5-23:61
MERGED from [com.android.support:animated-vector-drawable:26.1.0] /home/com82/.android/build-cache/5c97a7bafde8210db5154776996f567a6a64ec08/output/AndroidManifest.xml:20:5-44
MERGED from [com.android.support:support-vector-drawable:26.1.0] /home/com82/.android/build-cache/0de92b547b777221e29085d505b43b3d3a7071a8/output/AndroidManifest.xml:20:5-44
MERGED from [com.android.support:support-core-ui:26.1.0] /home/com82/.android/build-cache/5dc26041317fc80235223a702e9b4d242f1ca165/output/AndroidManifest.xml:21:5-23:58
MERGED from [com.android.support:support-compat:26.1.0] /home/com82/.android/build-cache/35ef9fcb4206e1b84555f4003afbf3d5add3d93f/output/AndroidManifest.xml:21:5-23:58
MERGED from [android.arch.lifecycle:runtime:1.0.0] /home/com82/.android/build-cache/70ce1ef5f45118481a294af74ee96721ec5a719e/output/AndroidManifest.xml:20:5-22:41
MERGED from [com.facebook.fbui.textlayoutbuilder:textlayoutbuilder:1.0.0] /home/com82/.android/build-cache/96a4944e454c9dd587415d97852fb0ef68cab6e3/output/AndroidManifest.xml:14:5-16:41
MERGED from [com.facebook.fresco:fresco:1.9.0] /home/com82/.android/build-cache/bf114f1f2d6262a3c81f4acebcb7432446042392/output/AndroidManifest.xml:5:5-7:41
MERGED from [com.facebook.fresco:drawee:1.9.0] /home/com82/.android/build-cache/5412bec0d5a19dcdc4f3ed1d53c252d1aeddc757/output/AndroidManifest.xml:5:5-7:41
MERGED from [com.facebook.fresco:imagepipeline-okhttp3:1.9.0] /home/com82/.android/build-cache/dc8d5b96d4e9826d50276120c737f738c761591a/output/AndroidManifest.xml:5:5-7:41
MERGED from [com.facebook.fresco:imagepipeline:1.9.0] /home/com82/.android/build-cache/67f896f8fd31320c808a8fbec8c729c6f215e94e/output/AndroidManifest.xml:5:5-7:41
MERGED from [com.facebook.fresco:imagepipeline-base:1.9.0] /home/com82/.android/build-cache/7bf70d1278b2c1bc98cafb30b86d280c3a0debfa/output/AndroidManifest.xml:5:5-7:41
MERGED from [com.facebook.fresco:fbcore:1.9.0] /home/com82/.android/build-cache/786d876bf767d0d6d4699392cc79d983d663cd13/output/AndroidManifest.xml:5:5-7:41
MERGED from [com.facebook.soloader:soloader:0.3.0] /home/com82/.android/build-cache/554f6eeabca8fd67c8357a496adb66641545690c/output/AndroidManifest.xml:7:5-9:41
	tools:overrideLibrary
		ADDED from [com.android.support:appcompat-v7:26.1.0] /home/com82/.android/build-cache/ed0c17de2186433008bbb823edc83b2f991d56f0/output/AndroidManifest.xml:23:9-75
	android:targetSdkVersion
		INJECTED from /home/com82/TestingProjects/video/client/android/app/src/main/AndroidManifest.xml
		INJECTED from /home/com82/TestingProjects/video/client/android/app/src/main/AndroidManifest.xml
	android:minSdkVersion
		INJECTED from /home/com82/TestingProjects/video/client/android/app/src/main/AndroidManifest.xml
		INJECTED from /home/com82/TestingProjects/video/client/android/app/src/main/AndroidManifest.xml
meta-data#android.support.VERSION
ADDED from [com.android.support:appcompat-v7:26.1.0] /home/com82/.android/build-cache/ed0c17de2186433008bbb823edc83b2f991d56f0/output/AndroidManifest.xml:26:9-28:38
MERGED from [com.android.support:support-v4:26.1.0] /home/com82/.android/build-cache/feeedff675d6df38f777576ea4ec6086d736646b/output/AndroidManifest.xml:26:9-28:38
MERGED from [com.android.support:support-media-compat:26.1.0] /home/com82/.android/build-cache/cbdae43380cf55dd630cc60983beaceb115d74ee/output/AndroidManifest.xml:26:9-28:38
MERGED from [com.android.support:support-fragment:26.1.0] /home/com82/.android/build-cache/09da244e525af6c4723ef870b808391763702323/output/AndroidManifest.xml:26:9-28:38
MERGED from [com.android.support:support-core-utils:26.1.0] /home/com82/.android/build-cache/e22d074ab94b26be7eb2c813c62245a839ca8b0c/output/AndroidManifest.xml:26:9-28:38
MERGED from [com.android.support:animated-vector-drawable:26.1.0] /home/com82/.android/build-cache/5c97a7bafde8210db5154776996f567a6a64ec08/output/AndroidManifest.xml:23:9-25:38
MERGED from [com.android.support:support-vector-drawable:26.1.0] /home/com82/.android/build-cache/0de92b547b777221e29085d505b43b3d3a7071a8/output/AndroidManifest.xml:23:9-25:38
MERGED from [com.android.support:support-core-ui:26.1.0] /home/com82/.android/build-cache/5dc26041317fc80235223a702e9b4d242f1ca165/output/AndroidManifest.xml:26:9-28:38
MERGED from [com.android.support:support-compat:26.1.0] /home/com82/.android/build-cache/35ef9fcb4206e1b84555f4003afbf3d5add3d93f/output/AndroidManifest.xml:26:9-28:38
	android:value
		ADDED from [com.android.support:appcompat-v7:26.1.0] /home/com82/.android/build-cache/ed0c17de2186433008bbb823edc83b2f991d56f0/output/AndroidManifest.xml:28:13-35
	android:name
		ADDED from [com.android.support:appcompat-v7:26.1.0] /home/com82/.android/build-cache/ed0c17de2186433008bbb823edc83b2f991d56f0/output/AndroidManifest.xml:27:13-51
meta-data#android.arch.lifecycle.VERSION
ADDED from [android.arch.lifecycle:runtime:1.0.0] /home/com82/.android/build-cache/70ce1ef5f45118481a294af74ee96721ec5a719e/output/AndroidManifest.xml:25:9-27:47
	android:value
		ADDED from [android.arch.lifecycle:runtime:1.0.0] /home/com82/.android/build-cache/70ce1ef5f45118481a294af74ee96721ec5a719e/output/AndroidManifest.xml:27:13-44
	android:name
		ADDED from [android.arch.lifecycle:runtime:1.0.0] /home/com82/.android/build-cache/70ce1ef5f45118481a294af74ee96721ec5a719e/output/AndroidManifest.xml:26:13-58
uses-permission#android.permission.READ_PHONE_STATE
IMPLIED from /home/com82/TestingProjects/video/client/android/app/src/main/AndroidManifest.xml:1:1-34:12 reason: org.webkit.android_jsc has a targetSdkVersion < 4
uses-permission#android.permission.READ_EXTERNAL_STORAGE
IMPLIED from /home/com82/TestingProjects/video/client/android/app/src/main/AndroidManifest.xml:1:1-34:12 reason: org.webkit.android_jsc requested WRITE_EXTERNAL_STORAGE
